^C:\USERS\NEW USER\DESKTOP\PROJECTS\VISUAL\16\16.CPP
C:\USERS\NEW USER\DESKTOP\PROJECTS\VISUAL\16\DEBUG\VC142.PDB
C:\USERS\NEW USER\DESKTOP\PROJECTS\VISUAL\16\DEBUG\VC142.IDB
C:\USERS\NEW USER\DESKTOP\PROJECTS\VISUAL\16\DEBUG\16.OBJ
